EESchema Schematic File Version 2
LIBS:emonesp-rescue
LIBS:power
LIBS:device
LIBS:transistors
LIBS:conn
LIBS:switches
LIBS:linear
LIBS:regul
LIBS:74xx
LIBS:cmos4000
LIBS:adc-dac
LIBS:memory
LIBS:xilinx
LIBS:microcontrollers
LIBS:dsp
LIBS:microchip
LIBS:analog_switches
LIBS:motorola
LIBS:texas
LIBS:intel
LIBS:audio
LIBS:interface
LIBS:digital-audio
LIBS:philips
LIBS:display
LIBS:cypress
LIBS:siliconi
LIBS:opto
LIBS:atmel
LIBS:contrib
LIBS:valves
LIBS:haum_kicad
LIBS:ESP8266
LIBS:emonesp-cache
EELAYER 25 0
EELAYER END
$Descr A4 11693 8268
encoding utf-8
Sheet 1 1
Title ""
Date ""
Rev ""
Comp ""
Comment1 ""
Comment2 ""
Comment3 ""
Comment4 ""
$EndDescr
$Comp
L CONN_01X02 P1
U 1 1 5873C52E
P 1725 5550
F 0 "P1" H 1725 5700 50  0000 C CNN
F 1 "CONN_01X02" V 1825 5550 50  0000 C CNN
F 2 "Connectors_Terminal_Blocks:TerminalBlock_Pheonix_MKDS1.5-2pol" H 1725 5550 60  0001 C CNN
F 3 "" H 1725 5550 60  0000 C CNN
	1    1725 5550
	-1   0    0    1   
$EndComp
$Comp
L CONN_01X10 P2
U 1 1 5873C71A
P 4525 3625
F 0 "P2" H 4525 4175 50  0000 C CNN
F 1 "CONN_01X10" V 4625 3625 50  0000 C CNN
F 2 "lib_haum:ADS1115_pcb" H 4525 3625 60  0001 C CNN
F 3 "" H 4525 3625 60  0000 C CNN
	1    4525 3625
	0    -1   -1   0   
$EndComp
$Comp
L CONN_01X04 P4
U 1 1 5873C7E1
P 7800 5575
F 0 "P4" H 7800 5825 50  0000 C CNN
F 1 "CONN_01X04" V 7900 5575 50  0000 C CNN
F 2 "Socket_Strips:Socket_Strip_Straight_1x04" H 7800 5575 60  0001 C CNN
F 3 "" H 7800 5575 60  0000 C CNN
	1    7800 5575
	1    0    0    -1  
$EndComp
$Comp
L CONN_01X06 P3
U 1 1 5873C8AF
P 8750 4850
F 0 "P3" H 8750 5200 50  0000 C CNN
F 1 "CONN_01X06" V 8850 4850 50  0000 C CNN
F 2 "Socket_Strips:Socket_Strip_Straight_1x06" H 8750 4850 60  0001 C CNN
F 3 "" H 8750 4850 60  0000 C CNN
	1    8750 4850
	1    0    0    -1  
$EndComp
$Comp
L SW_PUSH SW1
U 1 1 5873C9F8
P 7925 3175
F 0 "SW1" H 8075 3285 50  0000 C CNN
F 1 "SW_PUSH" H 7925 3095 50  0000 C CNN
F 2 "Buttons_Switches_THT:SW_PUSH_6mm_h4.3mm" H 7925 3175 60  0001 C CNN
F 3 "" H 7925 3175 60  0000 C CNN
	1    7925 3175
	1    0    0    -1  
$EndComp
$Comp
L SW_PUSH SW2
U 1 1 5873CA21
P 7925 2775
F 0 "SW2" H 8075 2885 50  0000 C CNN
F 1 "SW_PUSH" H 7925 2695 50  0000 C CNN
F 2 "Buttons_Switches_THT:SW_PUSH_6mm_h4.3mm" H 7925 2775 60  0001 C CNN
F 3 "" H 7925 2775 60  0000 C CNN
	1    7925 2775
	1    0    0    -1  
$EndComp
$Comp
L R-RESCUE-emonesp R1
U 1 1 5873CD15
P 3500 4850
F 0 "R1" V 3580 4850 40  0000 C CNN
F 1 "100k" V 3507 4851 40  0000 C CNN
F 2 "Discret:R4" V 3430 4850 30  0001 C CNN
F 3 "" H 3500 4850 30  0000 C CNN
	1    3500 4850
	1    0    0    -1  
$EndComp
$Comp
L R-RESCUE-emonesp R2
U 1 1 5873CDAC
P 3650 4850
F 0 "R2" V 3730 4850 40  0000 C CNN
F 1 "10k" V 3657 4851 40  0000 C CNN
F 2 "Discret:R4" V 3580 4850 30  0001 C CNN
F 3 "" H 3650 4850 30  0000 C CNN
	1    3650 4850
	1    0    0    -1  
$EndComp
$Comp
L R-RESCUE-emonesp R4
U 1 1 5873CDE8
P 3100 3900
F 0 "R4" V 3180 3900 40  0000 C CNN
F 1 "330" V 3107 3901 40  0000 C CNN
F 2 "Discret:R4" V 3030 3900 30  0001 C CNN
F 3 "" H 3100 3900 30  0000 C CNN
	1    3100 3900
	1    0    0    -1  
$EndComp
$Comp
L R-RESCUE-emonesp R3
U 1 1 5873CE5B
P 3800 4850
F 0 "R3" V 3880 4850 40  0000 C CNN
F 1 "10k" V 3807 4851 40  0000 C CNN
F 2 "Discret:R4" V 3730 4850 30  0001 C CNN
F 3 "" H 3800 4850 30  0000 C CNN
	1    3800 4850
	1    0    0    -1  
$EndComp
$Comp
L JACK_TRS_5PINS J1
U 1 1 587FD93D
P 2050 3925
F 0 "J1" H 2050 4325 50  0000 C CNN
F 1 "JACK_TRS_5PINS" H 2000 3625 50  0000 C CNN
F 2 "lib_haum:JACK5P_nofix" H 2150 3775 50  0001 C CNN
F 3 "" H 2150 3775 50  0000 C CNN
	1    2050 3925
	1    0    0    -1  
$EndComp
$Comp
L D_Bridge_+-AA D1
U 1 1 587FDA76
P 4225 5575
F 0 "D1" V 4000 5700 50  0000 L CNN
F 1 "D_Bridge_1A" V 3850 5350 50  0000 L CNN
F 2 "lib_haum:PD1A" H 4225 5575 50  0001 C CNN
F 3 "" H 4225 5575 50  0000 C CNN
	1    4225 5575
	0    -1   -1   0   
$EndComp
$Comp
L CP_Small C1
U 1 1 587FDE7F
P 4750 5600
F 0 "C1" H 4760 5670 50  0000 L CNN
F 1 "220µF" H 4760 5520 50  0000 L CNN
F 2 "Capacitors_THT:CP_Radial_D7.5mm_P2.50mm" H 4750 5600 50  0001 C CNN
F 3 "" H 4750 5600 50  0000 C CNN
	1    4750 5600
	1    0    0    -1  
$EndComp
$Comp
L CP_Small C4
U 1 1 587FDF41
P 6375 5575
F 0 "C4" H 6385 5645 50  0000 L CNN
F 1 "100µf" H 6385 5495 50  0000 L CNN
F 2 "Capacitors_THT:CP_Radial_D6.3mm_P2.50mm" H 6375 5575 50  0001 C CNN
F 3 "" H 6375 5575 50  0000 C CNN
	1    6375 5575
	1    0    0    -1  
$EndComp
$Comp
L C_Small C2
U 1 1 587FF44D
P 5150 5600
F 0 "C2" H 5160 5670 50  0000 L CNN
F 1 "100nF" H 5160 5520 50  0000 L CNN
F 2 "Capacitors_THT:C_Rect_L7.2mm_W2.5mm_P5.00mm_FKS2_FKP2_MKS2_MKP2" H 5150 5600 50  0001 C CNN
F 3 "" H 5150 5600 50  0000 C CNN
	1    5150 5600
	1    0    0    -1  
$EndComp
$Comp
L C_Small C3
U 1 1 587FF4D1
P 5975 5575
F 0 "C3" H 5985 5645 50  0000 L CNN
F 1 "100nF" H 5985 5495 50  0000 L CNN
F 2 "Capacitors_THT:C_Rect_L7.0mm_W2.5mm_P5.00mm" H 5975 5575 50  0001 C CNN
F 3 "" H 5975 5575 50  0000 C CNN
	1    5975 5575
	1    0    0    -1  
$EndComp
$Comp
L LM1084IS-3.3/NOPB U1
U 1 1 587FDE2A
P 5575 5325
F 0 "U1" H 5775 5125 50  0000 C CNN
F 1 "LM1086-3.3" H 5275 5525 50  0000 L CNN
F 2 "TO_SOT_Packages_THT:TO-220_Neutral123_Horizontal" H 5575 5700 50  0001 C CIN
F 3 "" H 5575 5325 50  0000 C CNN
	1    5575 5325
	1    0    0    -1  
$EndComp
$Comp
L +3.3V #PWR4
U 1 1 58800487
P 6375 5275
F 0 "#PWR4" H 6375 5125 50  0001 C CNN
F 1 "+3.3V" H 6375 5415 50  0000 C CNN
F 2 "" H 6375 5275 50  0000 C CNN
F 3 "" H 6375 5275 50  0000 C CNN
	1    6375 5275
	1    0    0    -1  
$EndComp
$Comp
L GND #PWR3
U 1 1 58800563
P 5575 5975
F 0 "#PWR3" H 5575 5725 50  0001 C CNN
F 1 "GND" H 5575 5825 50  0000 C CNN
F 2 "" H 5575 5975 50  0000 C CNN
F 3 "" H 5575 5975 50  0000 C CNN
	1    5575 5975
	1    0    0    -1  
$EndComp
Text Label 3575 4325 3    60   ~ 0
VAC+
Text Label 3800 4325 3    60   ~ 0
VAC-
Text Label 3400 3650 2    60   ~ 0
IAC+
Text Label 3400 4150 2    60   ~ 0
IAC-
Text Label 4975 4100 1    60   ~ 0
VAC+
Text Label 4875 4100 1    60   ~ 0
VAC-
Text Label 4775 4100 1    60   ~ 0
IAC-
Text Label 4675 4100 1    60   ~ 0
IAC+
$Comp
L +3.3V #PWR1
U 1 1 58802107
P 4075 4075
F 0 "#PWR1" H 4075 3925 50  0001 C CNN
F 1 "+3.3V" H 4075 4215 50  0000 C CNN
F 2 "" H 4075 4075 50  0000 C CNN
F 3 "" H 4075 4075 50  0000 C CNN
	1    4075 4075
	-1   0    0    1   
$EndComp
$Comp
L GND #PWR2
U 1 1 588022F2
P 4175 3925
F 0 "#PWR2" H 4175 3675 50  0001 C CNN
F 1 "GND" H 4175 3775 50  0000 C CNN
F 2 "" H 4175 3925 50  0000 C CNN
F 3 "" H 4175 3925 50  0000 C CNN
	1    4175 3925
	1    0    0    -1  
$EndComp
$Comp
L +3.3V #PWR5
U 1 1 5880914C
P 6475 2525
F 0 "#PWR5" H 6475 2375 50  0001 C CNN
F 1 "+3.3V" H 6475 2665 50  0000 C CNN
F 2 "" H 6475 2525 50  0000 C CNN
F 3 "" H 6475 2525 50  0000 C CNN
	1    6475 2525
	1    0    0    -1  
$EndComp
$Comp
L GND #PWR9
U 1 1 58809472
P 8550 4600
F 0 "#PWR9" H 8550 4350 50  0001 C CNN
F 1 "GND" H 8550 4450 50  0000 C CNN
F 2 "" H 8550 4600 50  0000 C CNN
F 3 "" H 8550 4600 50  0000 C CNN
	1    8550 4600
	0    1    1    0   
$EndComp
$Comp
L GND #PWR8
U 1 1 5880961D
P 7225 5575
F 0 "#PWR8" H 7225 5325 50  0001 C CNN
F 1 "GND" H 7225 5425 50  0000 C CNN
F 2 "" H 7225 5575 50  0000 C CNN
F 3 "" H 7225 5575 50  0000 C CNN
	1    7225 5575
	1    0    0    -1  
$EndComp
$Comp
L +3.3V #PWR7
U 1 1 588098E3
P 7225 5375
F 0 "#PWR7" H 7225 5225 50  0001 C CNN
F 1 "+3.3V" H 7225 5515 50  0000 C CNN
F 2 "" H 7225 5375 50  0000 C CNN
F 3 "" H 7225 5375 50  0000 C CNN
	1    7225 5375
	1    0    0    -1  
$EndComp
Text Label 7500 5625 2    60   ~ 0
SCL
Text Label 7500 5725 2    60   ~ 0
SDA
Text Notes 8225 2600 0    60   ~ 0
Reset
Text Notes 8250 3075 0    60   ~ 0
Boot
Text Label 4275 4275 1    60   ~ 0
SCL
Text Label 4375 4275 1    60   ~ 0
SDA
Text Label 7650 3750 2    60   ~ 0
SCL
Text Label 7650 3850 2    60   ~ 0
SDA
NoConn ~ 8550 4800
NoConn ~ 8550 4700
NoConn ~ 8550 5100
NoConn ~ 2450 4125
NoConn ~ 2450 4025
NoConn ~ 2450 3825
NoConn ~ 4475 3825
NoConn ~ 4575 3825
$Comp
L TRANSFO2VA T1
U 1 1 5882326B
P 2975 5575
F 0 "T1" H 2975 6075 70  0000 C CNN
F 1 "TRANSFO2VA" H 2975 5075 70  0000 C CNN
F 2 "lib_haum:TR_2_2VA" H 2975 5575 60  0001 C CNN
F 3 "" H 2975 5575 60  0000 C CNN
	1    2975 5575
	1    0    0    -1  
$EndComp
$Comp
L ESP-07v2 U2
U 1 1 588F79CC
P 6475 3850
F 0 "U2" H 6475 3750 50  0000 C CNN
F 1 "ESP-07v2" H 6475 3950 50  0000 C CNN
F 2 "ESP8266:ESP-07v2" H 6475 3850 50  0001 C CNN
F 3 "" H 6475 3850 50  0001 C CNN
	1    6475 3850
	1    0    0    -1  
$EndComp
$Comp
L GND #PWR6
U 1 1 588FC430
P 6475 4750
F 0 "#PWR6" H 6475 4500 50  0001 C CNN
F 1 "GND" H 6475 4600 50  0000 C CNN
F 2 "" H 6475 4750 50  0000 C CNN
F 3 "" H 6475 4750 50  0000 C CNN
	1    6475 4750
	1    0    0    -1  
$EndComp
$Comp
L R-RESCUE-emonesp R5
U 1 1 588FCFD1
P 6225 2650
F 0 "R5" V 6305 2650 40  0000 C CNN
F 1 "10k" V 6232 2651 40  0000 C CNN
F 2 "Discret:R4" V 6155 2650 30  0001 C CNN
F 3 "" H 6225 2650 30  0000 C CNN
	1    6225 2650
	0    1    1    0   
$EndComp
$Comp
L R-RESCUE-emonesp R6
U 1 1 588FD1D5
P 6725 2950
F 0 "R6" V 6805 2950 40  0000 C CNN
F 1 "10k" V 6732 2951 40  0000 C CNN
F 2 "Discret:R4" V 6655 2950 30  0001 C CNN
F 3 "" H 6725 2950 30  0000 C CNN
	1    6725 2950
	0    1    1    0   
$EndComp
$Comp
L CONN_01X04 P5
U 1 1 588FD608
P 8750 5575
F 0 "P5" H 8750 5825 50  0000 C CNN
F 1 "CONN_01X04" V 8850 5575 50  0000 C CNN
F 2 "Socket_Strips:Socket_Strip_Straight_1x04" H 8750 5575 60  0001 C CNN
F 3 "" H 8750 5575 60  0000 C CNN
	1    8750 5575
	1    0    0    -1  
$EndComp
Wire Wire Line
	1925 5500 1925 5375
Wire Wire Line
	1925 5375 2575 5375
Wire Wire Line
	1925 5600 1925 5775
Wire Wire Line
	1925 5775 2575 5775
Wire Wire Line
	3375 5475 3925 5475
Wire Wire Line
	3375 5175 4525 5175
Wire Wire Line
	4525 5175 4525 5575
Wire Wire Line
	3500 5675 3375 5675
Wire Wire Line
	3500 5100 3500 5675
Connection ~ 3500 5175
Wire Wire Line
	3375 5975 3550 5975
Wire Wire Line
	3550 5975 3550 5475
Connection ~ 3550 5475
Wire Wire Line
	3925 5475 3925 5575
Wire Wire Line
	4225 5275 5175 5275
Wire Wire Line
	4225 5875 6375 5875
Connection ~ 4750 5875
Connection ~ 5150 5875
Wire Wire Line
	4750 5700 4750 5875
Wire Wire Line
	5150 5700 5150 5875
Wire Wire Line
	5575 5575 5575 5975
Connection ~ 5575 5875
Wire Wire Line
	5975 5675 5975 5875
Connection ~ 5975 5875
Wire Wire Line
	6375 5875 6375 5675
Wire Wire Line
	4750 5500 4750 5275
Connection ~ 4750 5275
Wire Wire Line
	5150 5500 5150 5275
Connection ~ 5150 5275
Wire Wire Line
	5975 5475 5975 5275
Wire Wire Line
	5975 5275 6375 5275
Wire Wire Line
	6375 5275 6375 5475
Wire Wire Line
	3500 4600 3650 4600
Wire Wire Line
	3650 5100 3650 5475
Connection ~ 3650 5475
Wire Wire Line
	3650 5100 3800 5100
Wire Wire Line
	3575 4325 3575 4600
Connection ~ 3575 4600
Wire Wire Line
	3800 4325 3800 4600
Wire Wire Line
	2450 3925 2725 3925
Wire Wire Line
	2725 3925 2725 4150
Wire Wire Line
	2725 4150 3400 4150
Wire Wire Line
	2450 3725 2725 3725
Wire Wire Line
	2725 3725 2725 3650
Wire Wire Line
	2725 3650 3400 3650
Connection ~ 3100 3650
Connection ~ 3100 4150
Wire Wire Line
	4975 4100 4975 3825
Wire Wire Line
	4875 4100 4875 3825
Wire Wire Line
	4775 4100 4775 3825
Wire Wire Line
	4675 4100 4675 3825
Wire Wire Line
	4075 3825 4075 4075
Wire Wire Line
	8250 5000 8550 5000
Wire Wire Line
	7225 5525 8550 5525
Wire Wire Line
	7225 5525 7225 5575
Wire Wire Line
	7225 5425 8550 5425
Wire Wire Line
	7225 5425 7225 5375
Wire Wire Line
	7500 5625 8550 5625
Wire Wire Line
	7500 5725 8550 5725
Wire Wire Line
	4275 4275 4275 3825
Wire Wire Line
	4375 4275 4375 3825
Wire Wire Line
	4175 3925 4175 3825
Wire Wire Line
	8550 4900 8300 4900
Wire Wire Line
	8300 4900 8300 3650
Wire Wire Line
	8300 3650 7375 3650
Wire Wire Line
	7375 3550 8250 3550
Wire Wire Line
	8250 3550 8250 5000
Wire Wire Line
	7375 3750 7650 3750
Wire Wire Line
	7375 3850 7650 3850
Wire Wire Line
	8225 2775 8550 2775
Wire Wire Line
	8550 2775 8550 4600
Wire Wire Line
	8225 3175 8550 3175
Connection ~ 8550 3175
Wire Wire Line
	7425 3950 7375 3950
Wire Wire Line
	7425 2950 7425 3950
Wire Wire Line
	7425 3175 7625 3175
Wire Wire Line
	5575 3550 5575 2775
Wire Wire Line
	5575 2775 7625 2775
Connection ~ 5975 2775
Wire Wire Line
	6975 2950 7425 2950
Connection ~ 7425 3175
Connection ~ 6475 2950
Connection ~ 8550 4600
Connection ~ 7600 5425
Connection ~ 7600 5525
Connection ~ 7600 5625
Connection ~ 7600 5725
NoConn ~ 5575 4150
NoConn ~ 5575 4050
NoConn ~ 5575 3950
NoConn ~ 5575 3850
NoConn ~ 5575 3650
NoConn ~ 7375 4050
$Comp
L R-RESCUE-emonesp R8
U 1 1 58A33BD6
P 7550 4400
F 0 "R8" V 7630 4400 40  0000 C CNN
F 1 "10k" V 7557 4401 40  0000 C CNN
F 2 "Discret:R4" V 7480 4400 30  0001 C CNN
F 3 "" H 7550 4400 30  0000 C CNN
	1    7550 4400
	-1   0    0    1   
$EndComp
$Comp
L R-RESCUE-emonesp R7
U 1 1 58A33C75
P 5300 3175
F 0 "R7" V 5380 3175 40  0000 C CNN
F 1 "10k" V 5307 3176 40  0000 C CNN
F 2 "Discret:R4" V 5230 3175 30  0001 C CNN
F 3 "" H 5300 3175 30  0000 C CNN
	1    5300 3175
	-1   0    0    1   
$EndComp
Wire Wire Line
	5575 3750 5300 3750
Wire Wire Line
	5300 3750 5300 3425
Wire Wire Line
	7375 4150 7550 4150
Wire Wire Line
	6475 4750 7550 4750
Wire Wire Line
	7550 4750 7550 4650
Wire Wire Line
	5975 2650 5975 2775
Wire Wire Line
	6475 2525 6475 2950
Wire Wire Line
	5300 2925 5300 2525
Wire Wire Line
	5300 2525 6475 2525
Connection ~ 6475 2650
$EndSCHEMATC
