(export (version D)
  (design
    (source /home/jerome/Documents/circuits/emonESP/emonesp.sch)
    (date "mar. 14 févr. 2017 18:21:26 CET")
    (tool "Eeschema 4.0.5-e0-6337~49~ubuntu16.04.1")
    (sheet (number 1) (name /) (tstamps /)
      (title_block
        (title)
        (company)
        (rev)
        (date)
        (source emonesp.sch)
        (comment (number 1) (value ""))
        (comment (number 2) (value ""))
        (comment (number 3) (value ""))
        (comment (number 4) (value "")))))
  (components
    (comp (ref P1)
      (value CONN_01X02)
      (footprint Connectors_Terminal_Blocks:TerminalBlock_Pheonix_MKDS1.5-2pol)
      (libsource (lib conn) (part CONN_01X02))
      (sheetpath (names /) (tstamps /))
      (tstamp 5873C52E))
    (comp (ref P2)
      (value CONN_01X10)
      (footprint lib_haum:ADS1115_pcb)
      (libsource (lib conn) (part CONN_01X10))
      (sheetpath (names /) (tstamps /))
      (tstamp 5873C71A))
    (comp (ref P4)
      (value CONN_01X04)
      (footprint Socket_Strips:Socket_Strip_Straight_1x04)
      (libsource (lib conn) (part CONN_01X04))
      (sheetpath (names /) (tstamps /))
      (tstamp 5873C7E1))
    (comp (ref P3)
      (value CONN_01X06)
      (footprint Socket_Strips:Socket_Strip_Straight_1x06)
      (libsource (lib conn) (part CONN_01X06))
      (sheetpath (names /) (tstamps /))
      (tstamp 5873C8AF))
    (comp (ref SW1)
      (value SW_PUSH)
      (footprint Buttons_Switches_THT:SW_PUSH_6mm_h4.3mm)
      (libsource (lib emonesp-cache) (part SW_PUSH))
      (sheetpath (names /) (tstamps /))
      (tstamp 5873C9F8))
    (comp (ref SW2)
      (value SW_PUSH)
      (footprint Buttons_Switches_THT:SW_PUSH_6mm_h4.3mm)
      (libsource (lib emonesp-cache) (part SW_PUSH))
      (sheetpath (names /) (tstamps /))
      (tstamp 5873CA21))
    (comp (ref R1)
      (value 100k)
      (footprint Discret:R4)
      (libsource (lib emonesp-rescue) (part R-RESCUE-emonesp))
      (sheetpath (names /) (tstamps /))
      (tstamp 5873CD15))
    (comp (ref R2)
      (value 10k)
      (footprint Discret:R4)
      (libsource (lib emonesp-rescue) (part R-RESCUE-emonesp))
      (sheetpath (names /) (tstamps /))
      (tstamp 5873CDAC))
    (comp (ref R4)
      (value 330)
      (footprint Discret:R4)
      (libsource (lib emonesp-rescue) (part R-RESCUE-emonesp))
      (sheetpath (names /) (tstamps /))
      (tstamp 5873CDE8))
    (comp (ref R3)
      (value 10k)
      (footprint Discret:R4)
      (libsource (lib emonesp-rescue) (part R-RESCUE-emonesp))
      (sheetpath (names /) (tstamps /))
      (tstamp 5873CE5B))
    (comp (ref J1)
      (value JACK_TRS_5PINS)
      (footprint lib_haum:JACK5P_nofix)
      (libsource (lib haum_kicad) (part JACK_TRS_5PINS))
      (sheetpath (names /) (tstamps /))
      (tstamp 587FD93D))
    (comp (ref D1)
      (value D_Bridge_1A)
      (footprint lib_haum:PD1A)
      (libsource (lib device) (part D_Bridge_+-AA))
      (sheetpath (names /) (tstamps /))
      (tstamp 587FDA76))
    (comp (ref C1)
      (value 220µF)
      (footprint Capacitors_THT:CP_Radial_D7.5mm_P2.50mm)
      (libsource (lib device) (part CP_Small))
      (sheetpath (names /) (tstamps /))
      (tstamp 587FDE7F))
    (comp (ref C4)
      (value 100µf)
      (footprint Capacitors_THT:CP_Radial_D6.3mm_P2.50mm)
      (libsource (lib device) (part CP_Small))
      (sheetpath (names /) (tstamps /))
      (tstamp 587FDF41))
    (comp (ref C2)
      (value 100nF)
      (footprint Capacitors_THT:C_Rect_L7.2mm_W2.5mm_P5.00mm_FKS2_FKP2_MKS2_MKP2)
      (libsource (lib device) (part C_Small))
      (sheetpath (names /) (tstamps /))
      (tstamp 587FF44D))
    (comp (ref C3)
      (value 100nF)
      (footprint Capacitors_THT:C_Rect_L7.0mm_W2.5mm_P5.00mm)
      (libsource (lib device) (part C_Small))
      (sheetpath (names /) (tstamps /))
      (tstamp 587FF4D1))
    (comp (ref U1)
      (value LM1086-3.3)
      (footprint TO_SOT_Packages_THT:TO-220_Neutral123_Horizontal)
      (libsource (lib regul) (part LM1084IS-3.3/NOPB))
      (sheetpath (names /) (tstamps /))
      (tstamp 587FDE2A))
    (comp (ref T1)
      (value TRANSFO2VA)
      (footprint lib_haum:TR_2_2VA)
      (libsource (lib haum_kicad) (part TRANSFO2VA))
      (sheetpath (names /) (tstamps /))
      (tstamp 5882326B))
    (comp (ref U2)
      (value ESP-07v2)
      (footprint ESP8266:ESP-07v2)
      (libsource (lib ESP8266) (part ESP-07v2))
      (sheetpath (names /) (tstamps /))
      (tstamp 588F79CC))
    (comp (ref R5)
      (value 10k)
      (footprint Discret:R4)
      (libsource (lib emonesp-rescue) (part R-RESCUE-emonesp))
      (sheetpath (names /) (tstamps /))
      (tstamp 588FCFD1))
    (comp (ref R6)
      (value 10k)
      (footprint Discret:R4)
      (libsource (lib emonesp-rescue) (part R-RESCUE-emonesp))
      (sheetpath (names /) (tstamps /))
      (tstamp 588FD1D5))
    (comp (ref P5)
      (value CONN_01X04)
      (footprint Socket_Strips:Socket_Strip_Straight_1x04)
      (libsource (lib conn) (part CONN_01X04))
      (sheetpath (names /) (tstamps /))
      (tstamp 588FD608))
    (comp (ref R8)
      (value 10k)
      (footprint Discret:R4)
      (libsource (lib emonesp-rescue) (part R-RESCUE-emonesp))
      (sheetpath (names /) (tstamps /))
      (tstamp 58A33BD6))
    (comp (ref R7)
      (value 10k)
      (footprint Discret:R4)
      (libsource (lib emonesp-rescue) (part R-RESCUE-emonesp))
      (sheetpath (names /) (tstamps /))
      (tstamp 58A33C75)))
  (libparts
    (libpart (lib conn) (part CONN_01X02)
      (description "Connector, single row, 01x02")
      (footprints
        (fp Pin_Header_Straight_1X02)
        (fp Pin_Header_Angled_1X02)
        (fp Socket_Strip_Straight_1X02)
        (fp Socket_Strip_Angled_1X02))
      (fields
        (field (name Reference) P)
        (field (name Value) CONN_01X02))
      (pins
        (pin (num 1) (name P1) (type passive))
        (pin (num 2) (name P2) (type passive))))
    (libpart (lib conn) (part CONN_01X04)
      (description "Connector, single row, 01x04")
      (footprints
        (fp Pin_Header_Straight_1X04)
        (fp Pin_Header_Angled_1X04)
        (fp Socket_Strip_Straight_1X04)
        (fp Socket_Strip_Angled_1X04))
      (fields
        (field (name Reference) P)
        (field (name Value) CONN_01X04))
      (pins
        (pin (num 1) (name P1) (type passive))
        (pin (num 2) (name P2) (type passive))
        (pin (num 3) (name P3) (type passive))
        (pin (num 4) (name P4) (type passive))))
    (libpart (lib conn) (part CONN_01X06)
      (description "Connector, single row, 01x06")
      (footprints
        (fp Pin_Header_Straight_1X06)
        (fp Pin_Header_Angled_1X06)
        (fp Socket_Strip_Straight_1X06)
        (fp Socket_Strip_Angled_1X06))
      (fields
        (field (name Reference) P)
        (field (name Value) CONN_01X06))
      (pins
        (pin (num 1) (name P1) (type passive))
        (pin (num 2) (name P2) (type passive))
        (pin (num 3) (name P3) (type passive))
        (pin (num 4) (name P4) (type passive))
        (pin (num 5) (name P5) (type passive))
        (pin (num 6) (name P6) (type passive))))
    (libpart (lib conn) (part CONN_01X10)
      (description "Connector, single row, 01x10")
      (footprints
        (fp Pin_Header_Straight_1X10)
        (fp Pin_Header_Angled_1X10)
        (fp Socket_Strip_Straight_1X10)
        (fp Socket_Strip_Angled_1X10))
      (fields
        (field (name Reference) P)
        (field (name Value) CONN_01X10))
      (pins
        (pin (num 1) (name P1) (type passive))
        (pin (num 2) (name P2) (type passive))
        (pin (num 3) (name P3) (type passive))
        (pin (num 4) (name P4) (type passive))
        (pin (num 5) (name P5) (type passive))
        (pin (num 6) (name P6) (type passive))
        (pin (num 7) (name P7) (type passive))
        (pin (num 8) (name P8) (type passive))
        (pin (num 9) (name P9) (type passive))
        (pin (num 10) (name P10) (type passive))))
    (libpart (lib device) (part CP_Small)
      (description "Polarised capacitor")
      (footprints
        (fp CP*)
        (fp C_Axial*)
        (fp C_Radial*)
        (fp TantalC*)
        (fp C*elec)
        (fp c_elec*)
        (fp SMD*_Pol))
      (fields
        (field (name Reference) C)
        (field (name Value) CP_Small))
      (pins
        (pin (num 1) (name ~) (type passive))
        (pin (num 2) (name ~) (type passive))))
    (libpart (lib device) (part C_Small)
      (description "Unpolarized capacitor")
      (footprints
        (fp C?)
        (fp C_????_*)
        (fp C_????)
        (fp SMD*_c)
        (fp Capacitor*))
      (fields
        (field (name Reference) C)
        (field (name Value) C_Small))
      (pins
        (pin (num 1) (name ~) (type passive))
        (pin (num 2) (name ~) (type passive))))
    (libpart (lib device) (part D_Bridge_+-AA)
      (description "Diode bridge (pins: 1=+, 2=-, 3=AC, 4=AC)")
      (footprints
        (fp Diode?Bridge*)
        (fp Diode?Rectifier*))
      (fields
        (field (name Reference) D)
        (field (name Value) D_Bridge_+-AA))
      (pins
        (pin (num 1) (name +) (type input))
        (pin (num 2) (name -) (type input))
        (pin (num 3) (name ~) (type input))
        (pin (num 4) (name ~) (type input))))
    (libpart (lib ESP8266) (part ESP-12)
      (aliases
        (alias ESP-07v2))
      (description "ESP8266 ESP-12 module, 16 pins, 2mm, PCB antenna")
      (docs http://l0l.org.uk/2014/12/esp8266-modules-hardware-guide-gotta-catch-em-all/)
      (footprints
        (fp ESP-07*)
        (fp ESP-12*))
      (fields
        (field (name Reference) U)
        (field (name Value) ESP-12))
      (pins
        (pin (num 1) (name REST) (type input))
        (pin (num 2) (name ADC) (type passive))
        (pin (num 3) (name CH_PD) (type input))
        (pin (num 4) (name GPIO16) (type BiDi))
        (pin (num 5) (name GPIO14) (type BiDi))
        (pin (num 6) (name GPIO12) (type BiDi))
        (pin (num 7) (name GPIO13) (type BiDi))
        (pin (num 8) (name VCC) (type power_in))
        (pin (num 9) (name GND) (type power_in))
        (pin (num 10) (name GPIO15) (type BiDi))
        (pin (num 11) (name GPIO2) (type BiDi))
        (pin (num 12) (name GPIO0) (type BiDi))
        (pin (num 13) (name GPIO4) (type BiDi))
        (pin (num 14) (name GPIO5) (type BiDi))
        (pin (num 15) (name RXD) (type input))
        (pin (num 16) (name TXD) (type output))))
    (libpart (lib haum_kicad) (part JACK_TRS_5PINS)
      (description "audio jack TRS 5 pins")
      (fields
        (field (name Reference) J)
        (field (name Value) JACK_TRS_5PINS))
      (pins
        (pin (num 1) (name S) (type passive))
        (pin (num 2) (name R) (type passive))
        (pin (num 3) (name RN) (type passive))
        (pin (num 4) (name TN) (type passive))
        (pin (num 5) (name T) (type passive))))
    (libpart (lib regul) (part LM1084IS-3.3/NOPB)
      (aliases
        (alias LM1084IS-5.0/NOPB))
      (description "LM1084IS-3.3, 5A 27V Linear Regulator, Fixed Output 3.3V, TO-263")
      (docs http://www.ti.com/lit/ds/symlink/lm1084.pdf)
      (footprints
        (fp TO*))
      (fields
        (field (name Reference) U)
        (field (name Value) LM1084IS-3.3/NOPB)
        (field (name Footprint) TO-263))
      (pins
        (pin (num 1) (name GND) (type power_in))
        (pin (num 2) (name OUT) (type power_out))
        (pin (num 3) (name IN) (type input))))
    (libpart (lib emonesp-rescue) (part R-RESCUE-emonesp)
      (footprints
        (fp R?)
        (fp SM0603)
        (fp SM0805)
        (fp R?-*)
        (fp SM1206))
      (fields
        (field (name Reference) R)
        (field (name Value) R-RESCUE-emonesp))
      (pins
        (pin (num 1) (name ~) (type passive))
        (pin (num 2) (name ~) (type passive))))
    (libpart (lib emonesp-cache) (part SW_PUSH)
      (fields
        (field (name Reference) SW)
        (field (name Value) SW_PUSH))
      (pins
        (pin (num 1) (name 1) (type passive))
        (pin (num 2) (name 2) (type passive))))
    (libpart (lib haum_kicad) (part TRANSFO2VA)
      (fields
        (field (name Reference) T)
        (field (name Value) TRANSFO2VA))
      (pins
        (pin (num 1) (name AB) (type passive))
        (pin (num 5) (name AA) (type passive))
        (pin (num 6) (name SD) (type passive))
        (pin (num 7) (name SC) (type passive))
        (pin (num 9) (name SB) (type passive))
        (pin (num 10) (name SA) (type passive)))))
  (libraries
    (library (logical emonesp-rescue)
      (uri emonesp-rescue.lib))
    (library (logical haum_kicad)
      (uri /home/jerome/kicad/libs_kicad_haum/haum_kicad.lib))
    (library (logical emonesp-cache)
      (uri /home/jerome/Documents/circuits/emonESP/emonesp-cache.lib))
    (library (logical ESP8266)
      (uri /home/jerome/kicad_libraries/kicad-ESP8266/ESP8266.lib))
    (library (logical regul)
      (uri /usr/share/kicad/library/regul.lib))
    (library (logical device)
      (uri /usr/share/kicad/library/device.lib))
    (library (logical conn)
      (uri /usr/share/kicad/library/conn.lib)))
  (nets
    (net (code 1) (name "Net-(C1-Pad1)")
      (node (ref C2) (pin 1))
      (node (ref U1) (pin 3))
      (node (ref D1) (pin 1))
      (node (ref C1) (pin 1)))
    (net (code 2) (name +3V3)
      (node (ref P2) (pin 1))
      (node (ref C4) (pin 1))
      (node (ref P5) (pin 1))
      (node (ref R6) (pin 2))
      (node (ref R5) (pin 1))
      (node (ref C3) (pin 1))
      (node (ref U1) (pin 2))
      (node (ref R7) (pin 2))
      (node (ref P4) (pin 1))
      (node (ref U2) (pin 8)))
    (net (code 3) (name /VAC+)
      (node (ref R1) (pin 1))
      (node (ref R2) (pin 1))
      (node (ref P2) (pin 10)))
    (net (code 4) (name /VAC-)
      (node (ref P2) (pin 9))
      (node (ref R3) (pin 1)))
    (net (code 5) (name "Net-(P1-Pad2)")
      (node (ref P1) (pin 2))
      (node (ref T1) (pin 5)))
    (net (code 6) (name "Net-(P1-Pad1)")
      (node (ref P1) (pin 1))
      (node (ref T1) (pin 1)))
    (net (code 7) (name "Net-(D1-Pad4)")
      (node (ref T1) (pin 10))
      (node (ref R1) (pin 2))
      (node (ref D1) (pin 4))
      (node (ref T1) (pin 7)))
    (net (code 8) (name "Net-(D1-Pad3)")
      (node (ref R3) (pin 2))
      (node (ref R2) (pin 2))
      (node (ref D1) (pin 3))
      (node (ref T1) (pin 6))
      (node (ref T1) (pin 9)))
    (net (code 9) (name "Net-(U2-Pad7)")
      (node (ref U2) (pin 7)))
    (net (code 10) (name "Net-(U2-Pad6)")
      (node (ref U2) (pin 6)))
    (net (code 11) (name "Net-(U2-Pad5)")
      (node (ref U2) (pin 5)))
    (net (code 12) (name "Net-(U2-Pad4)")
      (node (ref U2) (pin 4)))
    (net (code 13) (name "Net-(U2-Pad2)")
      (node (ref U2) (pin 2)))
    (net (code 14) (name "Net-(U2-Pad11)")
      (node (ref U2) (pin 11)))
    (net (code 15) (name "Net-(R8-Pad2)")
      (node (ref R8) (pin 2))
      (node (ref U2) (pin 10)))
    (net (code 16) (name "Net-(R7-Pad1)")
      (node (ref R7) (pin 1))
      (node (ref U2) (pin 3)))
    (net (code 17) (name GND)
      (node (ref P3) (pin 1))
      (node (ref C1) (pin 2))
      (node (ref SW2) (pin 2))
      (node (ref SW1) (pin 2))
      (node (ref P4) (pin 2))
      (node (ref D1) (pin 2))
      (node (ref C4) (pin 2))
      (node (ref P2) (pin 2))
      (node (ref C2) (pin 2))
      (node (ref C3) (pin 2))
      (node (ref U1) (pin 1))
      (node (ref R8) (pin 1))
      (node (ref P5) (pin 2))
      (node (ref U2) (pin 9)))
    (net (code 18) (name "Net-(P3-Pad4)")
      (node (ref U2) (pin 15))
      (node (ref P3) (pin 4)))
    (net (code 19) (name "Net-(P3-Pad5)")
      (node (ref U2) (pin 16))
      (node (ref P3) (pin 5)))
    (net (code 20) (name "Net-(R6-Pad1)")
      (node (ref SW1) (pin 1))
      (node (ref R6) (pin 1))
      (node (ref U2) (pin 12)))
    (net (code 21) (name "Net-(R5-Pad2)")
      (node (ref U2) (pin 1))
      (node (ref SW2) (pin 1))
      (node (ref R5) (pin 2)))
    (net (code 22) (name /IAC+)
      (node (ref J1) (pin 1))
      (node (ref R4) (pin 1))
      (node (ref P2) (pin 7)))
    (net (code 23) (name /IAC-)
      (node (ref R4) (pin 2))
      (node (ref J1) (pin 5))
      (node (ref P2) (pin 8)))
    (net (code 24) (name "Net-(J1-Pad2)")
      (node (ref J1) (pin 2)))
    (net (code 25) (name "Net-(J1-Pad3)")
      (node (ref J1) (pin 3)))
    (net (code 26) (name "Net-(J1-Pad4)")
      (node (ref J1) (pin 4)))
    (net (code 27) (name /SDA)
      (node (ref P5) (pin 4))
      (node (ref P2) (pin 4))
      (node (ref U2) (pin 13))
      (node (ref P4) (pin 4)))
    (net (code 28) (name "Net-(P2-Pad5)")
      (node (ref P2) (pin 5)))
    (net (code 29) (name "Net-(P2-Pad6)")
      (node (ref P2) (pin 6)))
    (net (code 30) (name /SCL)
      (node (ref P5) (pin 3))
      (node (ref U2) (pin 14))
      (node (ref P2) (pin 3))
      (node (ref P4) (pin 3)))
    (net (code 31) (name "Net-(P3-Pad2)")
      (node (ref P3) (pin 2)))
    (net (code 32) (name "Net-(P3-Pad3)")
      (node (ref P3) (pin 3)))
    (net (code 33) (name "Net-(P3-Pad6)")
      (node (ref P3) (pin 6)))))